[0503/215845.327:ERROR:crash_report_database_win.cc(469)] failed to stat report
[0503/215845.329:ERROR:crash_report_database_win.cc(469)] failed to stat report
[0503/215845.329:ERROR:crash_report_database_win.cc(469)] failed to stat report
[0503/215845.329:ERROR:crash_report_database_win.cc(469)] failed to stat report
[0503/215845.329:ERROR:crash_report_database_win.cc(469)] failed to stat report
[0503/215845.329:ERROR:crash_report_database_win.cc(469)] failed to stat report
[0503/215845.330:ERROR:crash_report_database_win.cc(469)] failed to stat report
[0503/215845.330:ERROR:crash_report_database_win.cc(469)] failed to stat report
[0503/215845.330:ERROR:crash_report_database_win.cc(469)] failed to stat report
[0503/215845.330:ERROR:crash_report_database_win.cc(469)] failed to stat report
[0503/215845.331:ERROR:crash_report_database_win.cc(469)] failed to stat report
[0503/215845.331:ERROR:crash_report_database_win.cc(469)] failed to stat report
[0503/215845.331:ERROR:crash_report_database_win.cc(469)] failed to stat report
[0503/215845.331:ERROR:crash_report_database_win.cc(469)] failed to stat report
[0503/215845.331:ERROR:crash_report_database_win.cc(469)] failed to stat report
[0503/215845.331:ERROR:crash_report_database_win.cc(469)] failed to stat report
[0503/215845.332:ERROR:crash_report_database_win.cc(469)] failed to stat report
